Your Title
…
parsimonious_penalty <- lasso_models %>% 
  select_by_one_std_err(metric = "mae", desc(penalty))

final_lasso_model <- lasso_workflow %>% 
  finalize_workflow(parameters = parsimonious_penalty) %>% 
  fit(data = lasso_kangaroo)

# view selected variables with non-zero coefficients
final_lasso_model %>% 
  tidy()

# A tibble: 22 × 3
   term                 estimate penalty
   <chr>                   <dbl>   <dbl>
 1 (Intercept)             0.990  0.0121
 2 basilar.length          0      0.0121
 3 occipitonasal.length    0      0.0121
 4 palate.length           0      0.0121
 5 palate.width            0      0.0121
 6 nasal.length            0      0.0121
 7 nasal.width             0      0.0121
 8 squamosal.depth         0      0.0121
 9 lacrymal.width          0      0.0121
10 zygomatic.width         0      0.0121
# ℹ 12 more rows
…
